{
  "$schema": "https://typedoc.org/schema.json",
  "entryPoints": ["src"],
  "entryPointStrategy": "expand",
  "out": "docs",
  "exclude": ["src/assets/*"],
  "excludeExternals": true,
  "excludeInternal": true,
  "excludePrivate": true,
  "disableSources": true
}
